INDEX VERSION 1.126+C:\Users\Daniil\Documents\DM\02 - Projekte\005 - Bitbucket (IT-Project)\CorrelationOptimization\Algorithm\.metadata\.plugins\org.eclipse.jdt.core
1877021558.index
1604200090.index
4004133052.index
1947431546.index
828133061.index
3095963708.index
1028199574.index
2743915309.index
2193799835.index
3598813974.index
330980461.index
2338776811.index
1574318262.index
1832949699.index
834584462.index
1065832147.index
2486087126.index
3454125809.index
3991718231.index
